{
  "development": {
    "username": "dwivtedw",
    "password": "qgU1kFTEjOM7HYoDW-pcEYzQILhMOmKR",
    "database": "dwivtedw",
    "host": "snuffleupagus.db.elephantsql.com",
    "dialect": "postgres"
  
  },
  "production": {
    "username": "dwivtedw",
    "password": "qgU1kFTEjOM7HYoDW-pcEYzQILhMOmKR",
    "database": "dwivtedw",
    "host": "snuffleupagus.db.elephantsql.com",
    "dialect": "postgres"

  }
}
